TRATAMIENTO DE DATOS CON R
…
Conscientes de la popularidad y funcionalidades de data.table, desde tidyverse (que son muy pillos) también han desarrollado un traductor a código data.table.

De nuevo, como hemos visto con las bases de datos, podrás escribir tu código con la sintaxis que ya conoces y usar el traductor, denominado dtplyr para lanzar de forma ciega un código con sintaxis data.table, que para algunas operaciones será más rápido, o te permitirá utilizar funcionalidades de otras librerías desarrolladas para estructuras de datos data.table.

Para usar el paquete, como siempre, lo primero será asegurarte de que has instalado la librería (install.packages('dtplyr')) y que la has cargado en tu sesión de trabajo (library(dtplyr)). Una vez instalada y cargada la librería, tan sólo tendrás que escribir tu código partiendo de una estructura de datos data.table. R entenderá automáticamente que lo que quieres es que transforme tu código dplyr en código data.table.

Veámoslo con un ejemplo. El conjunto de datos que hemos denominado ‘Netflix_dt’ tiene la estructura de data.table. Así que ¿Qué pasa si escribimos código ´dplyr´ partiendo de este conjunto de datos? Lo vamos a mostrar, calculando el número de series que se han producido en cada país. Fijaos en que al pedirle que nos muestre lo que ha hecho (print(Ejemplo_dtplyr)), el programa nos informa del código ha utilizado para traducir nuestra consulta y después nos muestra los resultados. Como podréis comprobar, se trata de una forma muy sencilla de acceder a las ventajas de data.table (velocidad de procesamiento), sin necesidad de ser un experto en esa sintaxis, que resulta menos intuitiva, con todos esos puntos, comas y corchetes.

Ejemplo_dtplyr <- Netflix_dt %>% filter(type=='TV Show') %>% group_by(country) %>% summarise(num_pelis=n()) %>% arrange(desc(num_pelis))
print(Ejemplo_dtplyr)

## Source: local data table [184 x 2]
## Call:   `_DT5`[type == "TV Show"][, .(num_pelis = .N), keyby = .(country)][order(desc(num_pelis))]
## 
##   country        num_pelis
##   <chr>              <int>
## 1 United States        705
## 2 <NA>                 277
## 3 United Kingdom       204
## 4 Japan                157
## 5 South Korea          147
## 6 India                 71
## # ... with 178 more rows
## 
## # Use as.data.table()/as.data.frame()/as_tibble() to access results
…
